<define-tag pagetitle>DLA-2581-1 wpa</define-tag>
<define-tag report_date>2021-03-03</define-tag>
<define-tag secrefs>CVE-2021-27803</define-tag>
<define-tag packages>wpa</define-tag>
<define-tag isvulnerable>yes</define-tag>
<define-tag fixed>yes</define-tag>
<define-tag fixed-section>no</define-tag>

#use wml::debian::security

