<define-tag pagetitle>DLA-2547-1 wireshark</define-tag>
<define-tag report_date>2021-02-06</define-tag>
<define-tag secrefs>CVE-2019-13619 CVE-2019-16319 CVE-2019-19553 CVE-2020-7045 CVE-2020-9428 CVE-2020-9430 CVE-2020-9431 CVE-2020-11647 CVE-2020-13164 CVE-2020-15466 CVE-2020-25862 CVE-2020-25863 CVE-2020-26418 CVE-2020-26421 CVE-2020-26575 CVE-2020-28030 Bug#958213 Bug#974688 Bug#974689</define-tag>
<define-tag packages>wireshark</define-tag>
<define-tag isvulnerable>yes</define-tag>
<define-tag fixed>yes</define-tag>
<define-tag fixed-section>no</define-tag>

#use wml::debian::security

