<define-tag pagetitle>DLA-2555-1 netty</define-tag>
<define-tag report_date>2021-02-11</define-tag>
<define-tag secrefs>CVE-2021-21290</define-tag>
<define-tag packages>netty</define-tag>
<define-tag isvulnerable>yes</define-tag>
<define-tag fixed>yes</define-tag>
<define-tag fixed-section>no</define-tag>

#use wml::debian::security
