<define-tag pagetitle>DLA-25-3 python2.6</define-tag>
<define-tag report_date>2014-8-13</define-tag>
<define-tag secrefs>Bug#757776</define-tag>
<define-tag packages>python2.6</define-tag>
<define-tag isvulnerable>yes</define-tag>
<define-tag fixed>yes</define-tag>
<define-tag fixed-section>no</define-tag>

#use wml::debian::security

