<define-tag pagetitle>DLA-902-1 imagemagick</define-tag>
<define-tag report_date>2017-4-18</define-tag>
<define-tag secrefs>CVE-2017-7606 CVE-2017-7619 Bug#859771 Bug#859769</define-tag>
<define-tag packages>imagemagick</define-tag>
<define-tag isvulnerable>yes</define-tag>
<define-tag fixed>yes</define-tag>
<define-tag fixed-section>no</define-tag>

#use wml::debian::security

