<define-tag pagetitle>DLA-942-1 jbig2dec</define-tag>
<define-tag report_date>2017-5-15</define-tag>
<define-tag secrefs>CVE-2017-7885 CVE-2017-7975 CVE-2017-7976</define-tag>
<define-tag packages>jbig2dec</define-tag>
<define-tag isvulnerable>yes</define-tag>
<define-tag fixed>yes</define-tag>
<define-tag fixed-section>no</define-tag>

#use wml::debian::security

