<define-tag pagetitle>DLA-1077-1 faad2</define-tag>
<define-tag report_date>2017-8-30</define-tag>
<define-tag secrefs>CVE-2017-9218 CVE-2017-9219 CVE-2017-9220 CVE-2017-9221 CVE-2017-9222 CVE-2017-9223 CVE-2017-9253 CVE-2017-9254 CVE-2017-9255 CVE-2017-9256 CVE-2017-9257 Bug#867724</define-tag>
<define-tag packages>faad2</define-tag>
<define-tag isvulnerable>yes</define-tag>
<define-tag fixed>yes</define-tag>
<define-tag fixed-section>no</define-tag>

#use wml::debian::security

