<define-tag pagetitle>DLA-2267-1 libmatio</define-tag>
<define-tag report_date>2020-06-30</define-tag>
<define-tag secrefs>CVE-2019-17533</define-tag>
<define-tag packages>libmatio</define-tag>
<define-tag isvulnerable>yes</define-tag>
<define-tag fixed>yes</define-tag>
<define-tag fixed-section>no</define-tag>

#use wml::debian::security

