<define-tag pagetitle>DLA-2335-1 ghostscript</define-tag>
<define-tag report_date>2020-08-20</define-tag>
<define-tag secrefs>CVE-2020-16287 CVE-2020-16288 CVE-2020-16289 CVE-2020-16290 CVE-2020-16291 CVE-2020-16292 CVE-2020-16293 CVE-2020-16294 CVE-2020-16295 CVE-2020-16296 CVE-2020-16297 CVE-2020-16298 CVE-2020-16299 CVE-2020-16300 CVE-2020-16301 CVE-2020-16302 CVE-2020-16303 CVE-2020-16304 CVE-2020-16305 CVE-2020-16306 CVE-2020-16307 CVE-2020-16308 CVE-2020-16309 CVE-2020-16310 CVE-2020-17538</define-tag>
<define-tag packages>ghostscript</define-tag>
<define-tag isvulnerable>yes</define-tag>
<define-tag fixed>yes</define-tag>
<define-tag fixed-section>no</define-tag>

#use wml::debian::security

