<define-tag pagetitle>DLA-1415-1 phpmyadmin</define-tag>
<define-tag report_date>2018-7-6</define-tag>
<define-tag secrefs>CVE-2016-6609 CVE-2016-6614 CVE-2016-6615 CVE-2016-6616 CVE-2016-6618 CVE-2016-6619 CVE-2016-6620 CVE-2016-6621 CVE-2016-6622 CVE-2016-9865 CVE-2017-18264</define-tag>
<define-tag packages>phpmyadmin</define-tag>
<define-tag isvulnerable>yes</define-tag>
<define-tag fixed>yes</define-tag>
<define-tag fixed-section>no</define-tag>

#use wml::debian::security

