<define-tag pagetitle>DLA-1821-1 phpmyadmin</define-tag>
<define-tag report_date>2019-6-17</define-tag>
<define-tag secrefs>CVE-2016-6606 CVE-2016-6607 CVE-2016-6611 CVE-2016-6612 CVE-2016-6613 CVE-2016-6624 CVE-2016-6626 CVE-2016-6627 CVE-2016-6628 CVE-2016-6630 CVE-2016-6631 CVE-2016-6632 CVE-2016-9849 CVE-2016-9850 CVE-2016-9861 CVE-2016-9864 CVE-2019-12616 Bug#930017</define-tag>
<define-tag packages>phpmyadmin</define-tag>
<define-tag isvulnerable>yes</define-tag>
<define-tag fixed>yes</define-tag>
<define-tag fixed-section>no</define-tag>

#use wml::debian::security

