<define-tag pagetitle>DLA-654-1 libxfixes</define-tag>
<define-tag report_date>2016-10-14</define-tag>
<define-tag secrefs>CVE-2016-7944 Bug#840442</define-tag>
<define-tag packages>libxfixes</define-tag>
<define-tag isvulnerable>yes</define-tag>
<define-tag fixed>yes</define-tag>
<define-tag fixed-section>no</define-tag>

#use wml::debian::security

